%!PS-Adobe-3.0 EPSF-3.0
%%Creator: cairo 1.14.2 (http://cairographics.org)
%%CreationDate: Mon Apr 25 09:13:04 2016
%%Pages: 1
%%DocumentData: Clean7Bit
%%LanguageLevel: 2
%%BoundingBox: 0 -1 298 298
%%EndComments
%%BeginProlog
save
50 dict begin
/q { gsave } bind def
/Q { grestore } bind def
/cm { 6 array astore concat } bind def
/w { setlinewidth } bind def
/J { setlinecap } bind def
/j { setlinejoin } bind def
/M { setmiterlimit } bind def
/d { setdash } bind def
/m { moveto } bind def
/l { lineto } bind def
/c { curveto } bind def
/h { closepath } bind def
/re { exch dup neg 3 1 roll 5 3 roll moveto 0 rlineto
      0 exch rlineto 0 rlineto closepath } bind def
/S { stroke } bind def
/f { fill } bind def
/f* { eofill } bind def
/n { newpath } bind def
/W { clip } bind def
/W* { eoclip } bind def
/BT { } bind def
/ET { } bind def
/pdfmark where { pop globaldict /?pdfmark /exec load put }
    { globaldict begin /?pdfmark /pop load def /pdfmark
    /cleartomark load def end } ifelse
/BDC { mark 3 1 roll /BDC pdfmark } bind def
/EMC { mark /EMC pdfmark } bind def
/cairo_store_point { /cairo_point_y exch def /cairo_point_x exch def } def
/Tj { show currentpoint cairo_store_point } bind def
/TJ {
  {
    dup
    type /stringtype eq
    { show } { -0.001 mul 0 cairo_font_matrix dtransform rmoveto } ifelse
  } forall
  currentpoint cairo_store_point
} bind def
/cairo_selectfont { cairo_font_matrix aload pop pop pop 0 0 6 array astore
    cairo_font exch selectfont cairo_point_x cairo_point_y moveto } bind def
/Tf { pop /cairo_font exch def /cairo_font_matrix where
      { pop cairo_selectfont } if } bind def
/Td { matrix translate cairo_font_matrix matrix concatmatrix dup
      /cairo_font_matrix exch def dup 4 get exch 5 get cairo_store_point
      /cairo_font where { pop cairo_selectfont } if } bind def
/Tm { 2 copy 8 2 roll 6 array astore /cairo_font_matrix exch def
      cairo_store_point /cairo_font where { pop cairo_selectfont } if } bind def
/g { setgray } bind def
/rg { setrgbcolor } bind def
/d1 { setcachedevice } bind def
%%EndProlog
%%BeginSetup
%%EndSetup
%%Page: 1 1
%%BeginPageSetup
%%PageBoundingBox: 0 -1 298 298
%%EndPageSetup
q 0 -1 298 299 rectclip q
0 g
236.801 99.58 m 60.801 99.58 l 56.383 99.58 52.801 95.998 52.801 91.58 
c 52.801 87.163 56.383 83.58 60.801 83.58 c 236.801 83.58 l 241.219 83.58
 244.801 87.163 244.801 91.58 c 244.801 95.998 241.219 99.58 236.801 99.58
 c h
236.801 99.58 m f
148.801 297.6 m 66.75 297.6 0 230.85 0 148.799 c 0 66.752 66.75 -0.002 
148.801 -0.002 c 230.848 -0.002 297.602 66.752 297.602 148.799 c 297.602
 230.85 230.848 297.6 148.801 297.6 c h
148.801 281.6 m 222.027 281.6 281.602 222.026 281.602 148.799 c 281.602
 147.998 281.586 147.198 281.57 146.401 c 214.801 146.401 l 214.801 167.389
 l 223.199 167.389 l 227.617 167.389 231.199 170.971 231.199 175.389 c 231.199
 201.979 l 231.199 205.717 228.613 208.955 224.965 209.78 c 150.566 226.623
 l 149.402 226.885 148.195 226.885 147.035 226.623 c 72.633 209.78 l 68.988
 208.955 66.398 205.717 66.398 201.979 c 66.398 175.389 l 66.398 170.971
 69.98 167.389 74.398 167.389 c 82.801 167.389 l 82.801 146.401 l 16.031
 146.401 l 16.016 147.198 16 147.998 16 148.799 c 16 222.026 75.574 281.6
 148.801 281.6 c h
191.602 120.377 m 191.602 167.389 l 198.801 167.389 l 198.801 120.377 l
 h
168.398 120.377 m 168.398 167.389 l 175.602 167.389 l 175.602 120.377 l
 h
145.199 120.377 m 145.199 167.389 l 152.398 167.389 l 152.398 120.377 l
 h
122 120.377 m 122 167.389 l 129.199 167.389 l 129.199 120.377 l h
98.801 120.377 m 98.801 167.389 l 106 167.389 l 106 120.377 l h
82.398 183.389 m 82.398 195.588 l 148.801 210.62 l 215.199 195.588 l 215.199
 183.389 l h
148.801 15.998 m 81.816 15.998 26.266 65.854 17.281 130.401 c 82.801 130.401
 l 82.801 120.377 l 74.398 120.377 l 69.98 120.377 66.398 116.799 66.398
 112.377 c 66.398 107.959 69.98 104.377 74.398 104.377 c 223.199 104.377
 l 227.617 104.377 231.199 107.959 231.199 112.377 c 231.199 116.799 227.617
 120.377 223.199 120.377 c 214.801 120.377 l 214.801 130.401 l 280.32 130.401
 l 271.332 65.854 215.781 15.998 148.801 15.998 c h
148.801 15.998 m f
Q Q
showpage
%%Trailer
end restore
%%EOF
